+ 1 Magic Damage (+1 Magic Damage for Mage)
0
1
0
0
+ 2 Magic Damage (+1 Magic Damage for Mage)
0
2
0
0
+ 1 Armor (+1 Armor for Warrior)
0
0
0
1
+ 2 Armor (+1 Armor for Warrior)
0
0
0
2
+ .15 Attack Speed (+.15 Attack Speed for Hunter)
0
0
15
0
+ 1 Base Damage
1
0
0
0
+ 2 Base Damage
2
0
0
0
+ 1 Base Damage and Magic Damage (+1 Magic Damage for Mage)
1
1
0
0
+1 Base Damage and Armor (+1 Armor for Warrior)
1
0
0
0
1
